{
  "name": "longhallway",
  "dimensions": [6, 1.5, 1],
  "color": [0.2, 0.2, 0.2],
  "portals": [
    {
      "name": "0",
      "position": [6, 0, 0.5],
      "angle": 270,
      "rule": "rooms"
    },
    {
      "name": "1",
      "position": [0, 0, 0.5],
      "angle": 90,
      "rule": "rooms"
    }
  ]
}